…
```         
list(listings) 
```

Result:

```         
# A tibble: 3,540 × 18
       id name  host_id host_name neighbourhood_group neighbourhood latitude longitude room_type
    <dbl> <chr>   <dbl> <chr>     <chr>               <chr>            <dbl>     <dbl> <chr>    
 1  71609 Ensu…  367042 Belinda   East Region         Tampines          1.35      104. Private …
 2  71896 B&B …  367042 Belinda   East Region         Tampines          1.35      104. Private …
 3  71903 Room…  367042 Belinda   East Region         Tampines          1.35      104. Private …
 4 275343 10mi… 1439258 Kay       Central Region      Bukit Merah       1.29      104. Private …
 5 275344 15 m… 1439258 Kay       Central Region      Bukit Merah       1.29      104. Private …
 6 289234 Book…  367042 Belinda   East Region         Tampines          1.34      104. Private …
 7 294281 5 mi… 1521514 Elizabeth Central Region      Newton            1.31      104. Private …
 8 324945 Comf… 1439258 Kay       Central Region      Bukit Merah       1.29      104. Private …
 9 330095 Rela… 1439258 Kay       Central Region      Bukit Merah       1.29      104. Private …
10 344803 Budg…  367042 Belinda   East Region         Tampines          1.35      104. Private …
# ℹ 3,530 more rows
# ℹ 9 more variables: price <dbl>, minimum_nights <dbl>, number_of_reviews <dbl>,
#   last_review <date>, reviews_per_month <dbl>, calculated_host_listings_count <dbl>,
#   availability_365 <dbl>, number_of_reviews_ltm <dbl>, license <chr>
# ℹ Use `print(n = ...)` to see more rows
```
…
```         
list(listings) 
```

Result:

```         
# A tibble: 3,540 × 18
       id name  host_id host_name neighbourhood_group neighbourhood latitude longitude room_type
    <dbl> <chr>   <dbl> <chr>     <chr>               <chr>            <dbl>     <dbl> <chr>    
 1  71609 Ensu…  367042 Belinda   East Region         Tampines          1.35      104. Private …
 2  71896 B&B …  367042 Belinda   East Region         Tampines          1.35      104. Private …
 3  71903 Room…  367042 Belinda   East Region         Tampines          1.35      104. Private …
 4 275343 10mi… 1439258 Kay       Central Region      Bukit Merah       1.29      104. Private …
 5 275344 15 m… 1439258 Kay       Central Region      Bukit Merah       1.29      104. Private …
 6 289234 Book…  367042 Belinda   East Region         Tampines          1.34      104. Private …
 7 294281 5 mi… 1521514 Elizabeth Central Region      Newton            1.31      104. Private …
 8 324945 Comf… 1439258 Kay       Central Region      Bukit Merah       1.29      104. Private …
 9 330095 Rela… 1439258 Kay       Central Region      Bukit Merah       1.29      104. Private …
10 344803 Budg…  367042 Belinda   East Region         Tampines          1.35      104. Private …
# ℹ 3,530 more rows
# ℹ 9 more variables: price <dbl>, minimum_nights <dbl>, number_of_reviews <dbl>,
#   last_review <date>, reviews_per_month <dbl>, calculated_host_listings_count <dbl>,
#   availability_365 <dbl>, number_of_reviews_ltm <dbl>, license <chr>
# ℹ Use `print(n = ...)` to see more rows
```
…
